Product-Name,Product-CostPrice,Country
Paper Roll,200,Albania
JK copier Paper,300,Algeria
Corrugated Roll,303,Bahamas
Copier Paper,402,Canada
A4 Size Paper,500,China
Printing Paper,604,Denmark
Printing Paper,604,India
Copier Paper,802,Indonesia
White copy Paper,810,Indonesia
Paper Roll,900,Jordon
color Paper,200,Zimbia
Paper,100,India